R语言之echarts4r | 流恋のBlog
…
#创建数据源
data <- tibble(
    x = seq(50),
    y = rnorm(50,10,3)
)
data
#数据源
# A tibble: 50 x 2
       x     y
   <int> <dbl>
 1     1  8.44
 2     2  9.06
 3     3  7.70
 4     4 10.4 
 5     5 10.5 
 6     6 10.8 
 7     7  6.68
 8     8 15.5 
 9     9 11.6 
10    10 10.5 
# ... with 40 more rows
…
